<?xml version="1.0" standalone="no"?>
<!DOCTYPE svg PUBLIC "-//W3C//DTD SVG 1.1//EN" "http://www.w3.org/Graphics/SVG/1.1/DTD/svg11.dtd" >
<svg>
<metadata>
Created by FontForge 20090622 at Wed Jul  6 18:11:32 2016
 By deploy user
</metadata>
<defs>
<font id="openm_LILY" horiz-adv-x="384" >
  <font-face
    font-family="openm_LILY"
    font-weight="400"
    font-stretch="normal"
    units-per-em="448"
    panose-1="2 0 5 3 0 0 0 0 0 0"
    ascent="384"
    descent="-64"
    x-height="259"
    bbox="-0.0625 -64 525 384"
    underline-thickness="0"
    underline-position="0"
    unicode-range="U+003C-U+F000"
  />
<missing-glyph horiz-adv-x="448"
 />
    <glyph glyph-name=".notdef" horiz-adv-x="448"
 />
    <glyph glyph-name=".notdef" horiz-adv-x="448"
 />
    <glyph glyph-name=".null" horiz-adv-x="0"
 />
    <glyph glyph-name="nonmarkingreturn" horiz-adv-x="149"
 />
    <glyph glyph-name="uniF000" unicode="&#xf000;" horiz-adv-x="0"
d="M0 384l448 -448h-448v448z" />
    <glyph glyph-name="m" unicode="m" horiz-adv-x="560"
d="M460 51v-11q0 -16 -11 -27t-26.5 -11t-27 11t-11.5 27v38h-38q-16 0 -27 11t-11 27v4h-1q0 1 0.5 1.5t1.5 0.5q2 17 16 26q9 16 19 42q5 14 5 51q0 5 1 17t0.5 21t-2.5 15q-15 58 -81 58q-67 0 -83 -58q-1 -6 -1.5 -15t0 -21.5t0.5 -16.5q0 -37 6 -51q20 -52 37 -70
q-25 -4 -48.5 -14t-45 -22.5t-28.5 -14.5q-23 -11 -36.5 -23.5t-15.5 -19.5l-1 -8v-44h433v44l-0.5 1t-1 2.5t-1 4t-2.5 5.5t-4.5 6t-6 6.5t-8.5 7.5zM499 141h-51v51q0 10 -7.5 18t-18.5 8t-18.5 -8t-7.5 -18v-51h-50q-11 0 -18.5 -7.5t-7.5 -18t7.5 -18.5t18.5 -8h50v-50
q0 -11 7.5 -18.5t18.5 -7.5t18.5 7.5t7.5 18.5v50h51q10 0 18 8t8 18.5t-8 18t-18 7.5z" />
    <glyph glyph-name="c" unicode="c" horiz-adv-x="388"
d="M325 301v21q0 15 -9.5 24t-25.5 9t-25.5 -9t-9.5 -24v-21h-23v21q0 15 -9 24t-25 9t-25.5 -9t-9.5 -24v-21h-23v21q0 15 -9.5 24t-25.5 9t-25 -9t-9 -24v-21h-40v-333h333v333h-39zM274 322q0 14 16 14t16 -14v-56q0 -14 -16 -14t-16 14v56zM182 322q0 14 16 14t16 -14
v-56q0 -14 -16 -14t-16 14v56zM89 322q0 14 16 14t16 -14v-56q0 -14 -16 -14t-16 14v56zM336 -4h-277v231h277v-231zM198 85q0 24 -33 33v1q30 10 30 32q0 13 -12 21t-32 8q-23 0 -38 -7l3 -23q15 7 28 7q19 0 19 -13q0 -15 -29 -17v-24q20 -1 27.5 -5.5t7.5 -14.5
q0 -7 -6.5 -12t-17.5 -5q-17 0 -33 6l-3 -24q17 -6 33 -6q25 0 40.5 11.5t15.5 31.5zM247 144v-100h28v134h-14l-41 -20l3 -23z" />
    <glyph glyph-name="p" unicode="p" horiz-adv-x="448"
d="M368 126q-9 9 -39 9q-21 1 -47 -3q-15 9 -22 15q-26 24 -40 62l2 6l2.5 15.5t3.5 29t1 27.5q-1 3 -2 5v2q-6 12 -16 12h-5q-15 0 -18 -11q-7 -26 11 -94l-3 -7q-7 -19 -25 -54l-2 -2q-12 -25 -24 -45l-8 -4q-13 -7 -16 -9q-42 -25 -46 -47q-2 -9 4 -13l8 -4q4 -2 10 -2
q26 0 69 74q54 18 107 26q44 -25 78 -25q5 0 9 1q6 2 9 6q6 8 4 23q-1 3 -5 7zM93 28q7 19 36 43l7 7q-27 -43 -43 -50zM209 297q9 0 10 -29q0 -18 -7 -32q-5 16 -5 39q0 22 2 22zM174 105q8 13 13 24q13 24 23 49q15 -28 37 -46q3 -3 6 -5q-45 -9 -79 -22zM363 107
q-3 -2 -11 -2q-12 0 -43 13q11 1 20 1q14 0 25 -3q5 -1 7.5 -3t2 -3.5t-0.5 -2.5zM395 297l-62 62q-10 10 -28 17.5t-32 7.5h-210q-14 0 -24.5 -10.5t-10.5 -24.5v-378q0 -14 10.5 -24.5t24.5 -10.5h322q14 0 24.5 10.5t10.5 24.5v266q0 14 -7.5 32t-17.5 28zM375 277l5 -5
h-72v72l5 -5zM392 -29q0 -7 -7 -7h-322q-7 0 -7 7v378q0 7 7 7h210q3 0 7 -1v-111h111q1 -4 1 -7v-266z" />
    <glyph glyph-name="o" unicode="o"
d="M179 35l114 114q5 5 5 11t-5 11l-114 114q-5 5 -11 5t-11 -5l-26 -26q-5 -4 -5 -10.5t5 -11.5l77 -77l-77 -77q-5 -5 -5 -11t5 -11l26 -26q5 -5 11 -5t11 5zM384 160q0 -52 -26 -96t-70 -70t-96 -26t-96 26t-70 70t-26 96t25.5 96t70 70t96.5 26t96 -26t70 -70t26 -96z
" />
    <glyph glyph-name="greater" unicode="&#x3e;" horiz-adv-x="288"
d="M275 176q0 -13 -9 -23l-164 -163q-9 -9 -22 -9t-22 9l-20 19q-9 10 -9 23t9 22l122 122l-122 121q-9 10 -9 23t9 22l20 19q8 10 22 10t22 -10l164 -163q9 -9 9 -22z" />
    <glyph glyph-name="less" unicode="&#x3c;" horiz-adv-x="288"
d="M186 -9l-164 163q-9 9 -9 22.5t9 22.5l164 163q9 9 22.5 9t22.5 -9l19 -19q9 -9 9 -22.5t-9 -22.5l-122 -122l122 -121q9 -10 9 -23t-9 -22l-19 -19q-9 -9 -22.5 -9t-22.5 9z" />
    <glyph glyph-name="y" unicode="y" horiz-adv-x="448"
d="M320 160q0 9 -8 14l-128 80q-7 4 -16 0q-8 -4 -8 -14v-160q0 -10 8 -14q4 -2 8 -2q5 0 8 2l128 80q8 5 8 14zM448 160v-37.5t-2 -34t-6 -36.5q-4 -19 -17 -31.5t-31 -14.5q-56 -6 -168 -6t-168 6q-18 2 -31 14.5t-17 31.5q-4 16 -6 36.5t-2 34v37.5v37.5t2 34t6 36.5
q4 19 17 31.5t31 14.5q56 6 168 6t168 -6q18 -2 31 -14.5t17 -31.5q4 -16 6 -36.5t2 -34v-37.5z" />
    <glyph glyph-name="t" unicode="t" horiz-adv-x="416"
d="M405 282q-17 -24 -41 -42q1 -3 1 -10q0 -33 -9.5 -65.5t-29 -62t-46.5 -52.5t-64.5 -36.5t-80.5 -13.5q-68 0 -124 36q9 -1 19 -1q57 0 101 35q-27 0 -47.5 16t-28.5 40q9 -2 15 -2q11 0 22 3q-28 6 -46.5 28t-18.5 51v2q17 -10 37 -11q-17 11 -26.5 29t-9.5 38
q0 22 10 41q31 -37 74.5 -59.5t92.5 -24.5q-2 9 -2 18q0 34 23.5 57.5t57.5 23.5q35 0 59 -26q27 6 51 20q-9 -29 -36 -44q24 2 47 12z" />
    <glyph glyph-name="f" unicode="f"
d="M327 154l5 55h-49v27q0 13 4 17.5t18 4.5h27v55h-44q-38 0 -54 -18t-16 -53v-33h-33v-55h33v-158h65v158h44zM384 280v-240q0 -30 -21 -51t-51 -21h-240q-30 0 -51 21t-21 51v240q0 30 21 51t51 21h240q30 0 51 -21t21 -51z" />
    <glyph glyph-name="braceleft" unicode="{"
d="M320 144v32q0 6 -5 11t-11 5h-126l48 47q4 5 4 11.5t-4 11.5l-23 22q-5 5 -11.5 5t-11.5 -5l-90 -90l-23 -23q-4 -4 -4 -11t4 -11l23 -23l90 -90q5 -5 11.5 -5t11.5 5l23 22q4 5 4 11.5t-4 11.5l-48 47h126q6 0 11 5t5 11zM384 160q0 -52 -26 -96t-70 -70t-96 -26t-96 26
t-70 70t-26 96t25.5 96t70 70t96.5 26t96 -26t70 -70t26 -96z" />
    <glyph glyph-name="h" unicode="h" horiz-adv-x="416"
d="M352 136v-120q0 -7 -5 -11.5t-11 -4.5h-96v96h-64v-96h-96q-6 0 -11 5t-5 11v120v0.5v1.5l144 118l144 -118v-2zM408 153l-16 -18q-2 -3 -5 -3h-1q-3 0 -5 2l-173 144l-173 -144q-3 -2 -6 -2t-5 3l-16 18q-2 3 -1.5 6t2.5 5l180 150q8 7 19 7t19 -7l61 -51v49q0 4 2 6
t6 2h48q4 0 6 -2t2 -6v-102l55 -46q2 -2 2.5 -5t-1.5 -6z" />
    <glyph glyph-name="v" unicode="v" horiz-adv-x="416"
d="M403 208q0 -13 -9 -22l-163 -163q-10 -10 -23 -10q-14 0 -22 10l-163 163q-10 8 -10 22q0 13 10 23l18 19q10 9 23 9t22 -9l122 -122l122 122q9 9 22 9t23 -9l19 -19q9 -10 9 -23z" />
    <glyph glyph-name="k" unicode="k"
d="M312 352q30 0 51 -21t21 -51v-240q0 -30 -21 -51t-51 -21h-240q-30 0 -51 21t-21 51v240q0 30 21 51t51 21h240zM174 160q0 22 -15 37.5t-37 15.5t-38 -15.5t-16 -37.5t16 -37.5t38 -15.5t37 15.5t15 37.5zM316 160q0 22 -16 37.5t-38 15.5t-37 -15.5t-15 -37.5t15 -37.5
t37 -15.5t38 15.5t16 37.5z" />
    <glyph glyph-name="l" unicode="l" horiz-adv-x="352"
d="M350 297l-160 -320q-4 -9 -14 -9h-4q-5 2 -8.5 6t-3.5 10v144h-144q-6 0 -10 3.5t-5.5 9t1 10.5t7.5 7l320 160q3 2 7 2q7 0 11 -5q4 -3 5 -8t-2 -10z" />
  </font>
</defs></svg>
